<?xml version="1.0" encoding="UTF-8" standalone="no"?>
<!-- Created with Inkscape (http://www.inkscape.org/) -->

<svg
   id="svg4874"
   xmlns:dc="http://purl.org/dc/elements/1.1/"
   xmlns:cc="http://creativecommons.org/ns#"
   xmlns:rdf="http://www.w3.org/1999/02/22-rdf-syntax-ns#"
   xmlns:svg="http://www.w3.org/2000/svg"
   xmlns="http://www.w3.org/2000/svg"
   height="96"
   viewBox="0 0 96 96"
   width="96"
   version="1.1"
   sodipodi:docname="hLevel.svg"
   inkscape:version="0.92.3 (2405546, 2018-03-11)">
  <defs
     id="defs9" />
  <metadata
     id="metadata4879">
    <rdf:RDF>
      <cc:Work
         rdf:about="">
        <dc:format>image/svg+xml</dc:format>
        <dc:type
           rdf:resource="http://purl.org/dc/dcmitype/StillImage" />
        <dc:title />
      </cc:Work>
    </rdf:RDF>
  </metadata>
  <rect
     id="rect4782"
     x="-2.2543404e-14"
     y="-96"
     width="96"
     height="96"
     transform="rotate(90)"
     style="color:#000000;fill:none;stroke-width:1" />
  <path
     id="path824"
     style="fill:none;fill-opacity:1;fill-rule:evenodd;stroke:#808080;stroke-width:6;stroke-linecap:butt;stroke-linejoin:round;stroke-miterlimit:4;stroke-dasharray:none;stroke-opacity:1"
     d="M 5,31.51304 C 5,29.03659 7.54094,26.0339 10.01739,26.0339 h 74.92174 c 2.38572,0 5.06087,2.67515 5.06087,5.06087 0,11.68734 0,23.65794 0,35.06175 0,2.27525 -2.55128,4.82653 -4.82653,4.82653 H 10.12174 C 7.70733,70.98305 5,68.27572 5,65.86131 Z"/>
  <ellipse
     id="path830"
     style="opacity:1;vector-effect:none;fill:#000000;fill-opacity:1;fill-rule:evenodd;stroke:#404040;stroke-width:0.75;stroke-linecap:butt;stroke-linejoin:miter;stroke-miterlimit:4;stroke-dasharray:none;stroke-dashoffset:0;stroke-opacity:1"
     cx="90"
     cy="36.313049"
     rx="1.4347824"
     ry="1.3565217" />
  <ellipse
     id="path832"
     style="opacity:1;vector-effect:none;fill:#000000;fill-opacity:1;fill-rule:evenodd;stroke:#404040;stroke-width:0.75;stroke-linecap:butt;stroke-linejoin:miter;stroke-miterlimit:4;stroke-dasharray:none;stroke-dashoffset:0;stroke-opacity:1"
     cx="90"
     cy="47.165222"
     rx="1.5913041"
     ry="1.6695652" />
  <path
     id="path834"
     style="opacity:1;vector-effect:none;fill:#000000;fill-opacity:1;fill-rule:evenodd;stroke:#404040;stroke-width:0.75;stroke-linecap:butt;stroke-linejoin:miter;stroke-miterlimit:4;stroke-dasharray:none;stroke-dashoffset:0;stroke-opacity:1"
     d="m 91.591304,60.417389 a 1.5913041,3.2347827 0 0 1 -1.57358,3.234582 1.5913041,3.2347827 0 0 1 -1.608633,-3.16253 1.5913041,3.2347827 0 0 1 1.537747,-3.305029 1.5913041,3.2347827 0 0 1 1.642887,3.088909 L 90,60.417389 Z" />
</svg>
